^C:\USERS\ETERNAL\RIDERPROJECTS\OOP_TASKS\X64\DEBUG\ATTRIBUTE_BUILDER_TESTS.OBJ|C:\USERS\ETERNAL\RIDERPROJECTS\OOP_TASKS\X64\DEBUG\ATTRIBUTE_PROTOTYPE_PATTERN.OBJ|C:\USERS\ETERNAL\RIDERPROJECTS\OOP_TASKS\X64\DEBUG\OOP_TASKS.OBJ|C:\USERS\ETERNAL\RIDERPROJECTS\OOP_TASKS\X64\DEBUG\VEHICLE_BUILDER_FINAL_TESTS.OBJ|C:\USERS\ETERNAL\RIDERPROJECTS\OOP_TASKS\X64\DEBUG\VEHICLE_DEFAULT_FINAL_TESTS.OBJ
C:\USERS\ETERNAL\RIDERPROJECTS\OOP_TASKS\X64\DEBUG\OOP_TASKS.EXE
C:\USERS\ETERNAL\RIDERPROJECTS\OOP_TASKS\X64\DEBUG\OOP_TASKS.ILK
C:\USERS\ETERNAL\RIDERPROJECTS\OOP_TASKS\X64\DEBUG\OOP_TASKS.PDB
