^C:\USERS\ETERNAL\RIDERPROJECTS\OOP_TASKS\X64\DEBUG\ATTRIBUTE_BUILDER_TESTS.OBJ|C:\USERS\ETERNAL\RIDERPROJECTS\OOP_TASKS\X64\DEBUG\ATTRIBUTE_PROTOTYPE_PATTERN.OBJ|C:\USERS\ETERNAL\RIDERPROJECTS\OOP_TASKS\X64\DEBUG\OOP_TASKS.OBJ|C:\USERS\ETERNAL\RIDERPROJECTS\OOP_TASKS\X64\DEBUG\VEHICLE_BUILDER_FINAL_TESTS.OBJ|C:\USERS\ETERNAL\RIDERPROJECTS\OOP_TASKS\X64\DEBUG\VEHICLE_DEFAULT_FINAL_TESTS.OBJ
/OUT:"C:\USERS\ETERNAL\RIDERPROJECTS\OOP_TASKS\X64\DEBUG\OOP_TASKS.EXE" /INCREMENTAL /ILK:"X64\DEBUG\OOP_TASKS.ILK" /NOLOGO KERNEL32.LIB USER32.LIB GDI32.LIB WINSPOOL.LIB COMDLG32.LIB ADVAPI32.LIB SHELL32.LIB OLE32.LIB OLEAUT32.LIB UUID.LIB ODBC32.LIB ODBCCP32.LIB /MANIFEST /MANIFESTUAC:"level='asInvoker' uiAccess='false'" /manifest:embed /DEBUG /PDB:"C:\USERS\ETERNAL\RIDERPROJECTS\OOP_TASKS\X64\DEBUG\OOP_TASKS.PDB" /SUBSYSTEM:CONSOLE /TLBID:1 /DYNAMICBASE /NXCOMPAT /IMPLIB:"C:\USERS\ETERNAL\RIDERPROJECTS\OOP_TASKS\X64\DEBUG\OOP_TASKS.LIB" /MACHINE:X64 X64\DEBUG\ATTRIBUTE_PROTOTYPE_PATTERN.OBJ
X64\DEBUG\ATTRIBUTE_BUILDER_TESTS.OBJ
X64\DEBUG\VEHICLE_BUILDER_FINAL_TESTS.OBJ
X64\DEBUG\VEHICLE_DEFAULT_FINAL_TESTS.OBJ
X64\DEBUG\OOP_TASKS.OBJ
